{
  "id": "1639808",
  "name": "超赛V3.4",
  "font_family": "iconfont",
  "css_prefix_text": "icon",
  "description": "",
  "glyphs": [
    {
      "icon_id": "13035106",
      "name": "电话",
      "font_class": "dianhua",
      "unicode": "e666",
      "unicode_decimal": 58982
    },
    {
      "icon_id": "13035107",
      "name": "偏好设置",
      "font_class": "pianhaoshezhi",
      "unicode": "e667",
      "unicode_decimal": 58983
    },
    {
      "icon_id": "13035108",
      "name": "删除",
      "font_class": "shanchu",
      "unicode": "e668",
      "unicode_decimal": 58984
    },
    {
      "icon_id": "13035109",
      "name": "建议反馈",
      "font_class": "jianyifankui",
      "unicode": "e669",
      "unicode_decimal": 58985
    },
    {
      "icon_id": "13035110",
      "name": "会员服务",
      "font_class": "huiyuanfuwu",
      "unicode": "e66a",
      "unicode_decimal": 58986
    },
    {
      "icon_id": "13035111",
      "name": "开始分析",
      "font_class": "kaishifenxi",
      "unicode": "e66b",
      "unicode_decimal": 58987
    },
    {
      "icon_id": "13035112",
      "name": "篮球 未选",
      "font_class": "lanqiuweixuan",
      "unicode": "e66c",
      "unicode_decimal": 58988
    },
    {
      "icon_id": "13035113",
      "name": "添加",
      "font_class": "tianjia",
      "unicode": "e66d",
      "unicode_decimal": 58989
    },
    {
      "icon_id": "13035114",
      "name": "退出",
      "font_class": "tuichu",
      "unicode": "e66e",
      "unicode_decimal": 58990
    },
    {
      "icon_id": "13035115",
      "name": "下载",
      "font_class": "xiazai",
      "unicode": "e66f",
      "unicode_decimal": 58991
    },
    {
      "icon_id": "13035116",
      "name": "下拉",
      "font_class": "xiala",
      "unicode": "e670",
      "unicode_decimal": 58992
    },
    {
      "icon_id": "13035117",
      "name": "账号管理",
      "font_class": "zhanghaoguanli",
      "unicode": "e671",
      "unicode_decimal": 58993
    },
    {
      "icon_id": "13035118",
      "name": "筛选",
      "font_class": "shaixuan",
      "unicode": "e672",
      "unicode_decimal": 58994
    },
    {
      "icon_id": "13035119",
      "name": "篮球 选中",
      "font_class": "lanqiuxuanzhong",
      "unicode": "e673",
      "unicode_decimal": 58995
    },
    {
      "icon_id": "13035120",
      "name": "足球-未选中",
      "font_class": "zuqiu-weixuanzhong",
      "unicode": "e674",
      "unicode_decimal": 58996
    },
    {
      "icon_id": "13035121",
      "name": "下拉箭头",
      "font_class": "xialajiantou",
      "unicode": "e675",
      "unicode_decimal": 58997
    },
    {
      "icon_id": "13035122",
      "name": "向上箭头",
      "font_class": "xiangshangjiantou",
      "unicode": "e676",
      "unicode_decimal": 58998
    },
    {
      "icon_id": "13035123",
      "name": "足球-选中",
      "font_class": "zuqiu-xuanzhong",
      "unicode": "e677",
      "unicode_decimal": 58999
    }
  ]
}
